/home/elton/development/projects/back-end/rs/rs-group-sales-table/src/main/java/br/com/fastshop/entity/GroupSalesTable.java
/home/elton/development/projects/back-end/rs/rs-group-sales-table/src/main/java/br/com/fastshop/PaymentGroupApplication.java
/home/elton/development/projects/back-end/rs/rs-group-sales-table/src/main/java/br/com/fastshop/service/GroupSalesTableService.java
/home/elton/development/projects/back-end/rs/rs-group-sales-table/src/main/java/br/com/fastshop/resource/GroupSalesTableResource.java
/home/elton/development/projects/back-end/rs/rs-group-sales-table/src/main/java/br/com/fastshop/service/impl/GroupSalesTableServiceImpl.java
/home/elton/development/projects/back-end/rs/rs-group-sales-table/src/main/java/br/com/fastshop/config/SwaggerConfig.java
/home/elton/development/projects/back-end/rs/rs-group-sales-table/src/main/java/br/com/fastshop/repository/GroupSalesTableRepository.java
